Using the balancing matrix • ECCTools
…
  # Fourth, adding the bonfire sessions in country B:
  tibble::add_row(Country = "B", Method = "PCM", Energy.type = "E", Last.stage = "Final", Year = 2018, 
                  Ledger.side = "Consumption", Flow.aggregation.point = "Industry", 
                  Flow = "Bonfires", Product = "Coke oven coke", Unit = "ktoe", E.dot = 400) %>% 
  # Fifth, adding stock build-up of 200 ktoe of coke oven coke in country A
  tibble::add_row(Country = "A", Method = "PCM", Energy.type = "E", Last.stage = "Final", Year = 2018, 
                  Ledger.side = "Supply", Flow.aggregation.point = "Total primary energy supply", 
                  Flow = "Stock changes", Product = "Coke oven coke", Unit = "ktoe", E.dot = 200) %>% 
  # Sixth, adding imports of 200 ktoe of coke oven coke by country A
  tibble::add_row(Country = "A", Method = "PCM", Energy.type = "E", Last.stage = "Final", Year = 2018, 
                  Ledger.side = "Supply", Flow.aggregation.point = "Total primary energy supply", 
                  Flow = "Imports [of Coke oven coke]", Product = "Coke oven coke", Unit = "ktoe", E.dot = 200) %>%
  print()

## # A tibble: 105 × 11
##    Country Method Energy.type Last.stage  Year Ledger.side Flow.aggregation.poi…
##    <chr>   <chr>  <chr>       <chr>      <dbl> <chr>       <chr>                
##  1 A       PCM    E           Final       2018 Consumption Industry             
##  2 A       PCM    E           Final       2018 Consumption Industry             
##  3 A       PCM    E           Final       2018 Consumption Industry             
##  4 A       PCM    E           Final       2018 Consumption Industry             
##  5 A       PCM    E           Final       2018 Consumption Industry             
##  6 A       PCM    E           Final       2018 Consumption Industry             
##  7 A       PCM    E           Final       2018 Consumption Other                
##  8 A       PCM    E           Final       2018 Consumption Other                
##  9 A       PCM    E           Final       2018 Consumption Other                
## 10 A       PCM    E           Final       2018 Consumption Other                
## # … with 95 more rows, and 4 more variables: Flow <chr>, Product <chr>,
## #   Unit <chr>, E.dot <dbl>
…
IEATools::add_psut_matnames() will add a column stating the matrix to which each flow belongs (function belonging to the IEATools package);

stat_diffs_to_balancing() will move statistical difference flows, whether they are supply or use flows, to the balancing B matrix;

stock_changes_to_balancing() will move stock changes flows, whether they are supply or use flows, to the balancing B matrix.

The code is as follows:

tidy_AB_data_relocated_flows <- tidy_AB_data_added_flows %>% 
  IEATools::add_psut_matnames() %>% 
  stat_diffs_to_balancing() %>% 
  stock_changes_to_balancing() %>% 
  print()

## # A tibble: 105 × 12
##    Country Method Energy.type Last.stage  Year Ledger.side Flow.aggregation.poi…
##    <chr>   <chr>  <chr>       <chr>      <dbl> <chr>       <chr>                
##  1 A       PCM    E           Final       2018 Consumption Industry             
##  2 A       PCM    E           Final       2018 Consumption Industry             
##  3 A       PCM    E           Final       2018 Consumption Industry             
##  4 A       PCM    E           Final       2018 Consumption Industry             
##  5 A       PCM    E           Final       2018 Consumption Industry             
##  6 A       PCM    E           Final       2018 Consumption Industry             
##  7 A       PCM    E           Final       2018 Consumption Other                
##  8 A       PCM    E           Final       2018 Consumption Other                
##  9 A       PCM    E           Final       2018 Consumption Other                
## 10 A       PCM    E           Final       2018 Consumption Other                
## # … with 95 more rows, and 5 more variables: Flow <chr>, Product <chr>,
## #   Unit <chr>, E.dot <dbl>, matnames <chr>
…
