Global Market Assumption • ECCTools
…
Call the convert_to_net_trade(), which converts trade data to net trade. See “Possible issues” below.

Call the transform_to_gma() function.

Let’s see the example with the AB world example:

tidy_AB_data_gma <- tidy_AB_data %>% 
  IEATools::add_psut_matnames() %>% 
  convert_to_net_trade() %>% 
  transform_to_gma() %>% 
  dplyr::select(Country, Year, Flow, Product, E.dot) %>% 
  print()

## # A tibble: 94 × 5
##    Country  Year Flow                                          Product     E.dot
##    <chr>   <dbl> <chr>                                         <chr>       <dbl>
##  1 World    2018 {A}_Resources [of Coking coal]                {A}_Coking…  5000
##  2 World    2018 {A}_Resources [of Crude oil]                  {A}_Crude …  8500
##  3 World    2018 {A}_Resources [of Natural gas]                {A}_Natura…  4000
##  4 World    2018 {A}_Blast furnaces                            {A}_Blast …   850
##  5 World    2018 {A}_Coal mines                                {A}_Coking…  5000
##  6 World    2018 {A}_Coke ovens                                {A}_Coke o…   400
##  7 World    2018 {A}_Main activity producer electricity plants {A}_Electr…  3200
##  8 World    2018 {A}_Main activity producer electricity plants {A}_Heat      200
##  9 World    2018 {A}_Oil and gas extraction                    {A}_Crude …  8500
## 10 World    2018 {A}_Oil and gas extraction                    {A}_Natura…  4000
## # … with 84 more rows
…
Two possible issues are worth noting here; first, the issue of an imported product not being produced anywhere, and second, the issue of a country both importing or exporting a given product. We note that these issues will also cause issues when applying the Bilateral Trade Assumption.

Imported product not produced anywhere

A potential inconsistency in IEA data is the case of a country importing a product \(p\) which is not produced anywhere else. Let us show an example with the AB world. Say that country B also imports “A very odd product”, but that country A does not produce it (and hence, doesn’t export it).

tidy_AB_data %>% 
  tibble::add_row(Country = "B", Method = "PCM", Energy.type = "E", Last.stage = "Final", Year = 2018, 
                  Ledger.side = "Supply", Flow.aggregation.point = "Total primary energy supply", 
                  Flow = "Imports [of A very odd product]", Product = "A very odd product", Unit = "ktoe", E.dot = 100) %>% 
  IEATools::add_psut_matnames() %>% 
  convert_to_net_trade() %>% 
  transform_to_gma()

## # A tibble: 94 × 12
##    Country Method Energy.type Last.stage  Year Ledger.side Flow.aggregation.poi…
##    <chr>   <chr>  <chr>       <chr>      <dbl> <chr>       <chr>                
##  1 World   PCM    E           Final       2018 Supply      Total primary energy…
##  2 World   PCM    E           Final       2018 Supply      Total primary energy…
##  3 World   PCM    E           Final       2018 Supply      Total primary energy…
##  4 World   PCM    E           Final       2018 Supply      Transformation proce…
##  5 World   PCM    E           Final       2018 Supply      Transformation proce…
##  6 World   PCM    E           Final       2018 Supply      Transformation proce…
##  7 World   PCM    E           Final       2018 Supply      Transformation proce…
##  8 World   PCM    E           Final       2018 Supply      Transformation proce…
##  9 World   PCM    E           Final       2018 Supply      Transformation proce…
## 10 World   PCM    E           Final       2018 Supply      Transformation proce…
## # … with 84 more rows, and 5 more variables: Flow <chr>, Product <chr>,
## #   Unit <chr>, E.dot <dbl>, matnames <chr>
…
