Bilateral Trade Assumption • ECCTools
…
Note: It is important to note that one doesn’t need to provide the bilateral trade data for all products. If some products are not covered in the bilateral trade data, then the Global Market Assumption will be used to do the trade linking process. But it is important that the products that are covered are fully covered (i.e. that all flows corresponding to all the regions included in the MR-PSUT are included in the bilateral trade data frame, for that given product).

Transforming to Bilateral Trade Assumption

Once the bilateral trade data is prepared, and once it has been verified with the check_bilateral_trade_df() function that the bilateral trade data is valid, one can call the transform_to_bta() function as follows:

tidy_AB_data %>% 
  tibble::add_row(Country = "B", Method = "PCM", Energy.type = "E", Last.stage = "Final", Year = 2018, 
                  Ledger.side = "Supply", Flow.aggregation.point = "Total primary energy supply", 
                  Flow = "Imports [of A very odd product]", Product = "A very odd product", Unit = "ktoe", E.dot = 100) %>% 
  IEATools::add_psut_matnames() %>% 
  convert_to_net_trade() %>% 
  transform_to_bta(bilateral_trade_df = AB_world_btd)

## # A tibble: 94 × 12
##    Country Method Energy.type Last.stage  Year Ledger.side Flow.aggregation.poi…
##    <chr>   <chr>  <chr>       <chr>      <dbl> <chr>       <chr>                
##  1 World   PCM    E           Final       2018 Supply      Total primary energy…
##  2 World   PCM    E           Final       2018 Supply      Total primary energy…
##  3 World   PCM    E           Final       2018 Supply      Total primary energy…
##  4 World   PCM    E           Final       2018 Supply      Transformation proce…
##  5 World   PCM    E           Final       2018 Supply      Transformation proce…
##  6 World   PCM    E           Final       2018 Supply      Transformation proce…
##  7 World   PCM    E           Final       2018 Supply      Transformation proce…
##  8 World   PCM    E           Final       2018 Supply      Transformation proce…
##  9 World   PCM    E           Final       2018 Supply      Transformation proce…
## 10 World   PCM    E           Final       2018 Supply      Transformation proce…
## # … with 84 more rows, and 5 more variables: Flow <chr>, Product <chr>,
## #   Unit <chr>, E.dot <dbl>, matnames <chr>
…
