Calculates total consumption by product, for each country and year — calc_total_consumption_by_product • ECCTools
…
    A data frame with total consumption by product, for each country and year.

    Details

    Flows included in the calculation of the total consumption by product are flows belonging to either the Y,
U_feed, or U_eiou matrices. Flows belonging to the Y matrix but representing exports, are excluded.
In addition, flows belonging to the Balancing matrix and akin to a final demand (i.e. E.dot > 0) are also included, provided they do not represent exports.

    Examples

tidy_AB_data %>%
IEATools::add_psut_matnames() %>%
calc_total_consumption_by_product() %>%
print()
#> # A tibble: 21 × 8
#> # Groups:   Country, Method, Energy.type, Last.stage, Year, Product [21]
#>    Country Method Energy.type Last.stage  Year Product    Unit  Total_Consumpti…
#>    <chr>   <chr>  <chr>       <chr>      <dbl> <chr>      <chr>            <dbl>
#>  1 A       PCM    E           Final       2018 Blast fur… ktoe               850
#>  2 A       PCM    E           Final       2018 Coke oven… ktoe              1000
#>  3 A       PCM    E           Final       2018 Coking co… ktoe              3000
#>  4 A       PCM    E           Final       2018 Coking co… ktoe              5000
#>  5 A       PCM    E           Final       2018 Crude oil  ktoe              5000
#>  6 A       PCM    E           Final       2018 Crude oil… ktoe              8500
#>  7 A       PCM    E           Final       2018 Electrici… ktoe              3200
#>  8 A       PCM    E           Final       2018 Heat       ktoe               250
#>  9 A       PCM    E           Final       2018 Kerosene … ktoe              1750
#> 10 A       PCM    E           Final       2018 Motor gas… ktoe              2400
#> # … with 11 more rows
…
