Calculates the shares of imports to total consumption by product, for each country and year. — calc_share_imports_by_products • ECCTools
…
    Details

    Total consumption is calculated using the calc_total_consumption_by_product() function.

Note: the function needs to have a column indicating matrix names added first, most likely using the IEATools::add_psut_matnames() function.

    Examples

tidy_AB_data %>%
IEATools::add_psut_matnames() %>%
calc_share_imports_by_products() %>%
print()

#> # A tibble: 21 × 9
#> # Groups:   Country, Method, Energy.type, Last.stage, Year, Product [21]
#>    Country Method Energy.type Last.stage  Year Product  Total_Consumpti… Imports
#>    <chr>   <chr>  <chr>       <chr>      <dbl> <chr>               <dbl>   <dbl>
#>  1 A       PCM    E           Final       2018 Blast f…              850       0
#>  2 A       PCM    E           Final       2018 Coke ov…             1000     600
#>  3 A       PCM    E           Final       2018 Coking …             3000       0
#>  4 A       PCM    E           Final       2018 Coking …             5000       0
#>  5 A       PCM    E           Final       2018 Crude o…             5000       0
#>  6 A       PCM    E           Final       2018 Crude o…             8500       0
#>  7 A       PCM    E           Final       2018 Electri…             3200       0
#>  8 A       PCM    E           Final       2018 Heat                  250       0
#>  9 A       PCM    E           Final       2018 Kerosen…             1750       0
#> 10 A       PCM    E           Final       2018 Motor g…             2400       0
#> # … with 11 more rows, and 1 more variable: Share_Imports_By_Product <dbl>
…
