Extracts industry level EROIs from tidy Input Output matrices — extract_tidy_industry_erois • ECCTools
…
#> $ E_EIOU        <list> <<matrix[5 x 7]>>, <<matrix[5 x 7]>>
#> $ e_EIOU        <list> <<matrix[7 x 1]>>, <<matrix[7 x 1]>>
#> $ eroi_g_p      <list> <<matrix[12 x 1]>>, <<matrix[9 x 1]>>
#> $ eroi_n_p      <list> <<matrix[12 x 1]>>, <<matrix[9 x 1]>>
#> $ eroi_g_i      <list> <<matrix[7 x 1]>>, <<matrix[7 x 1]>>
#> $ eroi_n_i      <list> <<matrix[7 x 1]>>, <<matrix[7 x 1]>>
#> $ eroi_g_p_feed <list> <<matrix[12 x 1]>>, <<matrix[9 x 1]>>
#> $ eroi_n_p_feed <list> <<matrix[12 x 1]>>, <<matrix[9 x 1]>>
#> $ eroi_g_i_feed <list> <<matrix[7 x 1]>>, <<matrix[7 x 1]>>
#> $ eroi_n_i_feed <list> <<matrix[7 x 1]>>, <<matrix[7 x 1]>>
# Let's then extract EROIs in a tidy format:
calculated_erois_raw %>%
 extract_tidy_industry_erois() %>%
 print()
#> # A tibble: 56 × 9
#>    Country Method Energy.type Last.stage  Year Type  Boundary  Industry_name    
#>    <chr>   <chr>  <chr>       <chr>      <dbl> <chr> <chr>     <chr>            
#>  1 A       PCM    E           Final       2018 Gross All       Blast furnaces   
#>  2 A       PCM    E           Final       2018 Gross All       Coal mines       
#>  3 A       PCM    E           Final       2018 Gross All       Coke ovens       
#>  4 A       PCM    E           Final       2018 Gross All       Imports [of Coke…
#>  5 A       PCM    E           Final       2018 Gross All       Main activity pr…
#>  6 A       PCM    E           Final       2018 Gross All       Oil and gas extr…
#>  7 A       PCM    E           Final       2018 Gross All       Oil refineries   
#>  8 A       PCM    E           Final       2018 Gross Feedstock Blast furnaces   
#>  9 A       PCM    E           Final       2018 Gross Feedstock Coal mines       
#> 10 A       PCM    E           Final       2018 Gross Feedstock Coke ovens       
#> # … with 46 more rows, and 1 more variable: EROI <dbl>
…
