Specifies losses as a transformation industry — specify_losses_as_industry • ECCTools
…
  Country = "A",
  Method = "PCM",
  Energy.type = "E",
  Last.stage = "Final",
  Year = 2018,
  Ledger.side = "Supply",
  Flow.aggregation.point = "TFC compare",
  Flow = "Losses",
  Product = "Coke oven coke",
  Unit = "ktoe",
  E.dot = -20
 ) %>%
 IEATools::add_psut_matnames() %>%
 specify_losses_as_industry()
#> # A tibble: 104 × 12
#>    Country Method Energy.type Last.stage  Year Ledger.side
#>    <chr>   <chr>  <chr>       <chr>      <dbl> <chr>      
#>  1 A       PCM    E           Final       2018 Consumption
#>  2 A       PCM    E           Final       2018 Consumption
#>  3 A       PCM    E           Final       2018 Consumption
#>  4 A       PCM    E           Final       2018 Consumption
#>  5 A       PCM    E           Final       2018 Consumption
#>  6 A       PCM    E           Final       2018 Consumption
#>  7 A       PCM    E           Final       2018 Consumption
#>  8 A       PCM    E           Final       2018 Consumption
#>  9 A       PCM    E           Final       2018 Consumption
#> 10 A       PCM    E           Final       2018 Consumption
#> # ℹ 94 more rows
#> # ℹ 6 more variables: Flow.aggregation.point <chr>, Flow <chr>, Product <chr>,
#> #   Unit <chr>, E.dot <dbl>, matnames <chr>
…
