Specifies Multi-Regional final demand (Y) and use (U) matrices with Bilateral Trade Assumption — specify_MR_Y_U_bta • ECCTools
…
    Details

    First, each flow is separated into a flow of domestic product and imported product, using the specify_imported_products() function.
Then, the bilateral trade data passed as bilateral_trade_df argument, is used to specify the flows that are imported.

Only flows belonging to the Y, U_feed, U_eiou, and B matrices are returned.
Note that matrices names need to be added first, most likely using the IEATools::add_psut_matnames() function.

    Examples

tidy_AB_data %>%
IEATools::add_psut_matnames() %>%
specify_MR_Y_U_bta() %>%
print()
#> # A tibble: 73 × 12
#>    Country Method Energy.type Last.stage  Year Ledger.side Flow.aggregation.poi…
#>    <chr>   <chr>  <chr>       <chr>      <dbl> <chr>       <chr>                
#>  1 World   PCM    E           Final       2018 Consumption Industry             
#>  2 World   PCM    E           Final       2018 Consumption Industry             
#>  3 World   PCM    E           Final       2018 Consumption Industry             
#>  4 World   PCM    E           Final       2018 Consumption Industry             
#>  5 World   PCM    E           Final       2018 Consumption Industry             
#>  6 World   PCM    E           Final       2018 Consumption Industry             
#>  7 World   PCM    E           Final       2018 Consumption Industry             
#>  8 World   PCM    E           Final       2018 Consumption Industry             
#>  9 World   PCM    E           Final       2018 Consumption Industry             
#> 10 World   PCM    E           Final       2018 Consumption Industry             
#> # … with 63 more rows, and 5 more variables: Flow <chr>, Product <chr>,
#> #   Unit <chr>, matnames <chr>, E.dot <dbl>
…
