Specifies electricity and heat from nuclear — specify_elect_heat_nuclear • ECCTools
…
negzeropos
Temporary column name. Default is ".netzeropos".

    Value

    A .tidy_iea_df with electricity and heat products specified when they come from the nuclear industry.

    Examples

A_B_path <- system.file("extdata/A_B_data_full_2018_format.csv", package = "ECCTools")
IEATools::load_tidy_iea_df(A_B_path) %>%
IEATools::specify_all() %>%
specify_elect_heat_nuclear()
#> # A tibble: 102 × 11
#>    Country Method Energy.type Last.stage  Year Ledger.side Flow.aggregation.poi…
#>    <chr>   <chr>  <chr>       <chr>      <dbl> <chr>       <chr>                
#>  1 A       PCM    E           Final       2018 Consumption Industry             
#>  2 A       PCM    E           Final       2018 Consumption Industry             
#>  3 A       PCM    E           Final       2018 Consumption Industry             
#>  4 A       PCM    E           Final       2018 Consumption Industry             
#>  5 A       PCM    E           Final       2018 Consumption Industry             
#>  6 A       PCM    E           Final       2018 Consumption Industry             
#>  7 A       PCM    E           Final       2018 Consumption Other                
#>  8 A       PCM    E           Final       2018 Consumption Other                
#>  9 A       PCM    E           Final       2018 Consumption Other                
#> 10 A       PCM    E           Final       2018 Consumption Other                
#> # … with 92 more rows, and 4 more variables: Flow <chr>, Product <chr>,
#> #   Unit <chr>, E.dot <dbl>
…
