Specifies imported and domestic products — specify_imported_products • ECCTools
…
    Details

    Only flows belonging to the Y, U_eiou, U_feed, or Balancing matrices are returned.
Note that matrices names need to be added first, most likely using the IEATools::add_psut_matnames() function.

    Examples

tidy_AB_data %>%
IEATools::add_psut_matnames() %>%
specify_imported_products() %>%
print()

#> # A tibble: 73 × 13
#>    Country Method Energy.type Last.stage  Year Ledger.side Flow.aggregation.poi…
#>    <chr>   <chr>  <chr>       <chr>      <dbl> <chr>       <chr>                
#>  1 A       PCM    E           Final       2018 Consumption Industry             
#>  2 A       PCM    E           Final       2018 Consumption Industry             
#>  3 A       PCM    E           Final       2018 Consumption Industry             
#>  4 A       PCM    E           Final       2018 Consumption Industry             
#>  5 A       PCM    E           Final       2018 Consumption Industry             
#>  6 A       PCM    E           Final       2018 Consumption Industry             
#>  7 A       PCM    E           Final       2018 Consumption Other                
#>  8 A       PCM    E           Final       2018 Consumption Other                
#>  9 A       PCM    E           Final       2018 Consumption Other                
#> 10 A       PCM    E           Final       2018 Consumption Other                
#> # … with 63 more rows, and 6 more variables: Flow <chr>, Product <chr>,
#> #   Origin <chr>, Unit <chr>, matnames <chr>, E.dot <dbl>
…
